PWD /home/dr3m/Grive/travaux/linux-readme/Documentation/Configuration
INPUT /etc/texmf/web2c/texmf.cnf
INPUT /usr/share/texmf/web2c/texmf.cnf
INPUT /usr/share/texlive/texmf-dist/web2c/texmf.cnf
INPUT /var/lib/texmf/web2c/pdftex/pdflatex.fmt
INPUT main.tex
OUTPUT main.log
INPUT /usr/share/texlive/texmf-dist/tex/latex/base/book.cls
INPUT /usr/share/texlive/texmf-dist/tex/latex/base/book.cls
INPUT /usr/share/texlive/texmf-dist/tex/latex/base/bk10.clo
INPUT /usr/share/texlive/texmf-dist/tex/latex/base/bk10.clo
INPUT /usr/share/texlive/texmf-dist/tex/latex/base/inputenc.sty
INPUT /usr/share/texlive/texmf-dist/tex/latex/base/inputenc.sty
INPUT /usr/share/texlive/texmf-dist/tex/latex/base/fontenc.sty
INPUT /usr/share/texlive/texmf-dist/tex/latex/base/fontenc.sty
INPUT /usr/share/texlive/texmf-dist/tex/latex/base/t1enc.def
INPUT /usr/share/texlive/texmf-dist/tex/latex/base/t1enc.def
INPUT /usr/share/texlive/texmf-dist/fonts/map/fontname/texfonts.map
INPUT /usr/share/texlive/texmf-dist/fonts/tfm/jknappen/ec/ecrm1000.tfm
INPUT /usr/share/texlive/texmf-dist/tex/generic/babel/babel.sty
INPUT /usr/share/texlive/texmf-dist/tex/generic/babel/babel.sty
INPUT /usr/share/texlive/texmf-dist/tex/generic/babel/switch.def
INPUT /usr/share/texlive/texmf-dist/tex/generic/babel-french/french.ldf
INPUT /usr/share/texlive/texmf-dist/tex/generic/babel-french/french.ldf
INPUT /usr/share/texlive/texmf-dist/tex/generic/babel/babel.def
INPUT /usr/share/texlive/texmf-dist/tex/generic/babel/txtbabel.def
INPUT /usr/share/texlive/texmf-dist/tex/latex/carlisle/scalefnt.sty
INPUT /usr/share/texlive/texmf-dist/tex/latex/carlisle/scalefnt.sty
INPUT /usr/share/texlive/texmf-dist/tex/latex/graphics/keyval.sty
INPUT /usr/share/texlive/texmf-dist/tex/latex/graphics/keyval.sty
INPUT /usr/share/texlive/texmf-dist/tex/latex/xcolor/xcolor.sty
INPUT /usr/share/texlive/texmf-dist/tex/latex/xcolor/xcolor.sty
INPUT /usr/share/texlive/texmf-dist/tex/latex/graphics-cfg/color.cfg
INPUT /usr/share/texlive/texmf-dist/tex/latex/graphics-cfg/color.cfg
INPUT /usr/share/texlive/texmf-dist/tex/latex/graphics-def/pdftex.def
INPUT /usr/share/texlive/texmf-dist/tex/latex/graphics-def/pdftex.def
INPUT /usr/share/texlive/texmf-dist/tex/latex/graphics/dvipsnam.def
INPUT /usr/share/texlive/texmf-dist/tex/latex/graphics/dvipsnam.def
INPUT /usr/share/texlive/texmf-dist/tex/latex/geometry/geometry.sty
INPUT /usr/share/texlive/texmf-dist/tex/latex/geometry/geometry.sty
INPUT /usr/share/texlive/texmf-dist/tex/generic/oberdiek/ifpdf.sty
INPUT /usr/share/texlive/texmf-dist/tex/generic/oberdiek/ifpdf.sty
INPUT /usr/share/texlive/texmf-dist/tex/generic/oberdiek/ifvtex.sty
INPUT /usr/share/texlive/texmf-dist/tex/generic/oberdiek/ifvtex.sty
INPUT /usr/share/texlive/texmf-dist/tex/generic/ifxetex/ifxetex.sty
INPUT /usr/share/texlive/texmf-dist/tex/generic/ifxetex/ifxetex.sty
INPUT /usr/share/texmf/tex/latex/lm/lmodern.sty
INPUT /usr/share/texmf/tex/latex/lm/lmodern.sty
INPUT /usr/share/texlive/texmf-dist/tex/latex/ae/ae.sty
INPUT /usr/share/texlive/texmf-dist/tex/latex/ae/ae.sty
INPUT /usr/share/texlive/texmf-dist/tex/latex/base/fontenc.sty
INPUT /usr/share/texlive/texmf-dist/tex/latex/base/fontenc.sty
INPUT /usr/share/texlive/texmf-dist/tex/latex/base/t1enc.def
INPUT /usr/share/texlive/texmf-dist/tex/latex/base/t1enc.def
INPUT /usr/share/texlive/texmf-dist/tex/latex/ae/t1aer.fd
INPUT /usr/share/texlive/texmf-dist/tex/latex/ae/t1aer.fd
INPUT /usr/share/texlive/texmf-dist/fonts/tfm/public/ae/aer10.tfm
INPUT /usr/share/texlive/texmf-dist/tex/latex/ae/aecompl.sty
INPUT /usr/share/texlive/texmf-dist/tex/latex/ae/aecompl.sty
INPUT /usr/share/texlive/texmf-dist/tex/latex/fancyhdr/fancyhdr.sty
INPUT /usr/share/texlive/texmf-dist/tex/latex/fancyhdr/fancyhdr.sty
INPUT /usr/share/texlive/texmf-dist/tex/latex/pdfpages/pdfpages.sty
INPUT /usr/share/texlive/texmf-dist/tex/latex/pdfpages/pdfpages.sty
INPUT /usr/share/texlive/texmf-dist/tex/latex/base/ifthen.sty
INPUT /usr/share/texlive/texmf-dist/tex/latex/base/ifthen.sty
INPUT /usr/share/texlive/texmf-dist/tex/latex/tools/calc.sty
INPUT /usr/share/texlive/texmf-dist/tex/latex/tools/calc.sty
INPUT /usr/share/texlive/texmf-dist/tex/latex/eso-pic/eso-pic.sty
INPUT /usr/share/texlive/texmf-dist/tex/latex/eso-pic/eso-pic.sty
INPUT /usr/share/texlive/texmf-dist/tex/generic/oberdiek/atbegshi.sty
INPUT /usr/share/texlive/texmf-dist/tex/generic/oberdiek/atbegshi.sty
INPUT /usr/share/texlive/texmf-dist/tex/generic/oberdiek/infwarerr.sty
INPUT /usr/share/texlive/texmf-dist/tex/generic/oberdiek/infwarerr.sty
INPUT /usr/share/texlive/texmf-dist/tex/generic/oberdiek/ltxcmds.sty
INPUT /usr/share/texlive/texmf-dist/tex/generic/oberdiek/ltxcmds.sty
INPUT /usr/share/texlive/texmf-dist/tex/latex/graphics/graphicx.sty
INPUT /usr/share/texlive/texmf-dist/tex/latex/graphics/graphicx.sty
INPUT /usr/share/texlive/texmf-dist/tex/latex/graphics/graphics.sty
INPUT /usr/share/texlive/texmf-dist/tex/latex/graphics/graphics.sty
INPUT /usr/share/texlive/texmf-dist/tex/latex/graphics/trig.sty
INPUT /usr/share/texlive/texmf-dist/tex/latex/graphics/trig.sty
INPUT /usr/share/texlive/texmf-dist/tex/latex/graphics-cfg/graphics.cfg
INPUT /usr/share/texlive/texmf-dist/tex/latex/graphics-cfg/graphics.cfg
INPUT /usr/share/texlive/texmf-dist/tex/latex/pdfpages/pppdftex.def
INPUT /usr/share/texlive/texmf-dist/tex/latex/pdfpages/pppdftex.def
INPUT /usr/share/texlive/texmf-dist/tex/latex/enotez/enotez.sty
INPUT /usr/share/texlive/texmf-dist/tex/latex/enotez/enotez.sty
INPUT /usr/share/texlive/texmf-dist/tex/latex/l3kernel/expl3.sty
INPUT /usr/share/texlive/texmf-dist/tex/latex/l3kernel/expl3.sty
INPUT /usr/share/texlive/texmf-dist/tex/latex/l3kernel/expl3-code.tex
INPUT /usr/share/texlive/texmf-dist/tex/latex/l3kernel/expl3-code.tex
INPUT /usr/share/texlive/texmf-dist/fonts/tfm/public/cm/cmr10.tfm
INPUT /usr/share/texlive/texmf-dist/fonts/tfm/public/cm/cmr10.tfm
INPUT /usr/share/texlive/texmf-dist/fonts/tfm/public/cm/cmr10.tfm
INPUT /usr/share/texlive/texmf-dist/fonts/tfm/public/cm/cmr10.tfm
INPUT /usr/share/texlive/texmf-dist/fonts/tfm/public/cm/cmr10.tfm
INPUT /usr/share/texlive/texmf-dist/fonts/tfm/public/cm/cmr10.tfm
INPUT /usr/share/texlive/texmf-dist/fonts/tfm/public/cm/cmr10.tfm
INPUT /usr/share/texlive/texmf-dist/fonts/tfm/public/cm/cmr10.tfm
INPUT /usr/share/texlive/texmf-dist/fonts/tfm/public/cm/cmr10.tfm
INPUT /usr/share/texlive/texmf-dist/fonts/tfm/public/cm/cmr10.tfm
INPUT /usr/share/texlive/texmf-dist/tex/generic/unicode-data/UnicodeData.txt
INPUT /usr/share/texlive/texmf-dist/tex/generic/unicode-data/UnicodeData.txt
INPUT /dev/null
INPUT /usr/share/texlive/texmf-dist/tex/latex/l3kernel/l3pdfmode.def
INPUT /usr/share/texlive/texmf-dist/tex/latex/l3kernel/l3pdfmode.def
INPUT /usr/share/texlive/texmf-dist/tex/latex/l3packages/xparse/xparse.sty
INPUT /usr/share/texlive/texmf-dist/tex/latex/l3packages/xparse/xparse.sty
INPUT /usr/share/texlive/texmf-dist/tex/latex/l3packages/l3keys2e/l3keys2e.sty
INPUT /usr/share/texlive/texmf-dist/tex/latex/l3packages/l3keys2e/l3keys2e.sty
INPUT /usr/share/texlive/texmf-dist/tex/latex/l3packages/xtemplate/xtemplate.sty
INPUT /usr/share/texlive/texmf-dist/tex/latex/l3packages/xtemplate/xtemplate.sty
INPUT /usr/share/texlive/texmf-dist/tex/latex/etoolbox/etoolbox.sty
INPUT /usr/share/texlive/texmf-dist/tex/latex/etoolbox/etoolbox.sty
INPUT /usr/share/texlive/texmf-dist/tex/latex/xpatch/xpatch.sty
INPUT /usr/share/texlive/texmf-dist/tex/latex/xpatch/xpatch.sty
INPUT /usr/share/texlive/texmf-dist/tex/latex/koma-script/scrlfile.sty
INPUT /usr/share/texlive/texmf-dist/tex/latex/koma-script/scrlfile.sty
INPUT /usr/share/texlive/texmf-dist/tex/latex/translations/translations.sty
INPUT /usr/share/texlive/texmf-dist/tex/latex/translations/translations.sty
INPUT /usr/share/texlive/texmf-dist/tex/generic/oberdiek/pdftexcmds.sty
INPUT /usr/share/texlive/texmf-dist/tex/generic/oberdiek/pdftexcmds.sty
INPUT /usr/share/texlive/texmf-dist/tex/generic/oberdiek/ifluatex.sty
INPUT /usr/share/texlive/texmf-dist/tex/generic/oberdiek/ifluatex.sty
INPUT /usr/share/texlive/texmf-dist/tex/latex/aeguill/aeguill.sty
INPUT /usr/share/texlive/texmf-dist/tex/latex/aeguill/aeguill.sty
INPUT /usr/share/texlive/texmf-dist/tex/latex/amsfonts/amssymb.sty
INPUT /usr/share/texlive/texmf-dist/tex/latex/amsfonts/amssymb.sty
INPUT /usr/share/texlive/texmf-dist/tex/latex/amsfonts/amsfonts.sty
INPUT /usr/share/texlive/texmf-dist/tex/latex/amsfonts/amsfonts.sty
INPUT /usr/share/texlive/texmf-dist/tex/latex/amsmath/amsmath.sty
INPUT /usr/share/texlive/texmf-dist/tex/latex/amsmath/amsmath.sty
INPUT /usr/share/texlive/texmf-dist/tex/latex/amsmath/amstext.sty
INPUT /usr/share/texlive/texmf-dist/tex/latex/amsmath/amstext.sty
INPUT /usr/share/texlive/texmf-dist/tex/latex/amsmath/amsgen.sty
INPUT /usr/share/texlive/texmf-dist/tex/latex/amsmath/amsgen.sty
INPUT /usr/share/texlive/texmf-dist/tex/latex/amsmath/amsbsy.sty
INPUT /usr/share/texlive/texmf-dist/tex/latex/amsmath/amsbsy.sty
INPUT /usr/share/texlive/texmf-dist/tex/latex/amsmath/amsopn.sty
INPUT /usr/share/texlive/texmf-dist/tex/latex/amsmath/amsopn.sty
INPUT /usr/share/texlive/texmf-dist/tex/latex/jknapltx/mathrsfs.sty
INPUT /usr/share/texlive/texmf-dist/tex/latex/jknapltx/mathrsfs.sty
INPUT /usr/share/texlive/texmf-dist/tex/latex/amscls/amsthm.sty
INPUT /usr/share/texlive/texmf-dist/tex/latex/amscls/amsthm.sty
INPUT /usr/share/texlive/texmf-dist/tex/latex/url/url.sty
INPUT /usr/share/texlive/texmf-dist/tex/latex/url/url.sty
INPUT /usr/share/texlive/texmf-dist/tex/latex/listings/listings.sty
INPUT /usr/share/texlive/texmf-dist/tex/latex/listings/listings.sty
INPUT /usr/share/texlive/texmf-dist/tex/latex/listings/lstmisc.sty
INPUT /usr/share/texlive/texmf-dist/tex/latex/listings/lstmisc.sty
INPUT /usr/share/texlive/texmf-dist/tex/latex/listings/listings.cfg
INPUT /usr/share/texlive/texmf-dist/tex/latex/listings/listings.cfg
INPUT /usr/share/texlive/texmf-dist/tex/latex/stmaryrd/stmaryrd.sty
INPUT /usr/share/texlive/texmf-dist/tex/latex/stmaryrd/stmaryrd.sty
INPUT /usr/share/texlive/texmf-dist/tex/latex/tools/array.sty
INPUT /usr/share/texlive/texmf-dist/tex/latex/tools/array.sty
INPUT /usr/share/texlive/texmf-dist/tex/latex/multirow/multirow.sty
INPUT /usr/share/texlive/texmf-dist/tex/latex/multirow/multirow.sty
INPUT /usr/share/texlive/texmf-dist/tex/latex/tools/verbatim.sty
INPUT /usr/share/texlive/texmf-dist/tex/latex/tools/verbatim.sty
INPUT /usr/share/texlive/texmf-dist/tex/latex/oberdiek/bookmark.sty
INPUT /usr/share/texlive/texmf-dist/tex/latex/oberdiek/bookmark.sty
INPUT /usr/share/texlive/texmf-dist/tex/generic/oberdiek/pdfescape.sty
INPUT /usr/share/texlive/texmf-dist/tex/generic/oberdiek/pdfescape.sty
INPUT /usr/share/texlive/texmf-dist/tex/latex/hyperref/hyperref.sty
INPUT /usr/share/texlive/texmf-dist/tex/latex/hyperref/hyperref.sty
INPUT /usr/share/texlive/texmf-dist/tex/generic/oberdiek/hobsub-hyperref.sty
INPUT /usr/share/texlive/texmf-dist/tex/generic/oberdiek/hobsub-hyperref.sty
INPUT /usr/share/texlive/texmf-dist/tex/generic/oberdiek/hobsub-hyperref.sty
INPUT /usr/share/texlive/texmf-dist/tex/generic/oberdiek/hobsub-generic.sty
INPUT /usr/share/texlive/texmf-dist/tex/generic/oberdiek/hobsub-generic.sty
INPUT /usr/share/texlive/texmf-dist/tex/latex/oberdiek/auxhook.sty
INPUT /usr/share/texlive/texmf-dist/tex/latex/oberdiek/auxhook.sty
INPUT /usr/share/texlive/texmf-dist/tex/latex/oberdiek/kvoptions.sty
INPUT /usr/share/texlive/texmf-dist/tex/latex/oberdiek/kvoptions.sty
INPUT /usr/share/texlive/texmf-dist/tex/latex/hyperref/pd1enc.def
INPUT /usr/share/texlive/texmf-dist/tex/latex/hyperref/pd1enc.def
INPUT /usr/share/texlive/texmf-dist/tex/latex/latexconfig/hyperref.cfg
INPUT /usr/share/texlive/texmf-dist/tex/latex/latexconfig/hyperref.cfg
INPUT /usr/share/texlive/texmf-dist/tex/latex/hyperref/hpdftex.def
INPUT /usr/share/texlive/texmf-dist/tex/latex/hyperref/hpdftex.def
INPUT /usr/share/texlive/texmf-dist/tex/latex/oberdiek/rerunfilecheck.sty
INPUT /usr/share/texlive/texmf-dist/tex/latex/oberdiek/rerunfilecheck.sty
INPUT /usr/share/texlive/texmf-dist/tex/latex/oberdiek/bkm-pdftex.def
INPUT /usr/share/texlive/texmf-dist/tex/latex/oberdiek/bkm-pdftex.def
INPUT /usr/share/texlive/texmf-dist/tex/latex/soul/soul.sty
INPUT /usr/share/texlive/texmf-dist/tex/latex/soul/soul.sty
INPUT /usr/share/texlive/texmf-dist/fonts/tfm/jknappen/ec/ectt1000.tfm
INPUT /usr/share/texlive/texmf-dist/tex/generic/ulem/ulem.sty
INPUT /usr/share/texlive/texmf-dist/tex/generic/ulem/ulem.sty
INPUT /usr/share/texlive/texmf-dist/fonts/tfm/public/latex-fonts/lasy6.tfm
INPUT /usr/share/texlive/texmf-dist/tex/latex/float/float.sty
INPUT /usr/share/texlive/texmf-dist/tex/latex/float/float.sty
INPUT /usr/share/texlive/texmf-dist/tex/latex/caption/subcaption.sty
INPUT /usr/share/texlive/texmf-dist/tex/latex/caption/subcaption.sty
INPUT /usr/share/texlive/texmf-dist/tex/latex/caption/caption.sty
INPUT /usr/share/texlive/texmf-dist/tex/latex/caption/caption.sty
INPUT /usr/share/texlive/texmf-dist/tex/latex/caption/caption3.sty
INPUT /usr/share/texlive/texmf-dist/tex/latex/caption/caption3.sty
INPUT /usr/share/texlive/texmf-dist/tex/latex/base/makeidx.sty
INPUT /usr/share/texlive/texmf-dist/tex/latex/base/makeidx.sty
INPUT /usr/share/texlive/texmf-dist/tex/latex/glossaries/base/glossaries.sty
INPUT /usr/share/texlive/texmf-dist/tex/latex/glossaries/base/glossaries.sty
INPUT /usr/share/texlive/texmf-dist/tex/latex/xkeyval/xkeyval.sty
INPUT /usr/share/texlive/texmf-dist/tex/latex/xkeyval/xkeyval.sty
INPUT /usr/share/texlive/texmf-dist/tex/generic/xkeyval/xkeyval.tex
INPUT /usr/share/texlive/texmf-dist/tex/generic/xkeyval/xkvutils.tex
INPUT /usr/share/texlive/texmf-dist/tex/latex/mfirstuc/mfirstuc.sty
INPUT /usr/share/texlive/texmf-dist/tex/latex/mfirstuc/mfirstuc.sty
INPUT /usr/share/texlive/texmf-dist/tex/latex/textcase/textcase.sty
INPUT /usr/share/texlive/texmf-dist/tex/latex/textcase/textcase.sty
INPUT /usr/share/texlive/texmf-dist/tex/latex/xfor/xfor.sty
INPUT /usr/share/texlive/texmf-dist/tex/latex/xfor/xfor.sty
INPUT /usr/share/texlive/texmf-dist/tex/latex/datatool/datatool-base.sty
INPUT /usr/share/texlive/texmf-dist/tex/latex/datatool/datatool-base.sty
INPUT /usr/share/texlive/texmf-dist/tex/latex/substr/substr.sty
INPUT /usr/share/texlive/texmf-dist/tex/latex/substr/substr.sty
INPUT /usr/share/texlive/texmf-dist/tex/latex/datatool/datatool-fp.sty
INPUT /usr/share/texlive/texmf-dist/tex/latex/datatool/datatool-fp.sty
INPUT /usr/share/texlive/texmf-dist/tex/latex/fp/fp.sty
INPUT /usr/share/texlive/texmf-dist/tex/latex/fp/fp.sty
INPUT /usr/share/texlive/texmf-dist/tex/latex/fp/defpattern.sty
INPUT /usr/share/texlive/texmf-dist/tex/latex/fp/defpattern.sty
INPUT /usr/share/texlive/texmf-dist/tex/latex/fp/fp-basic.sty
INPUT /usr/share/texlive/texmf-dist/tex/latex/fp/fp-basic.sty
INPUT /usr/share/texlive/texmf-dist/tex/latex/fp/fp-addons.sty
INPUT /usr/share/texlive/texmf-dist/tex/latex/fp/fp-addons.sty
INPUT /usr/share/texlive/texmf-dist/tex/latex/fp/fp-snap.sty
INPUT /usr/share/texlive/texmf-dist/tex/latex/fp/fp-snap.sty
INPUT /usr/share/texlive/texmf-dist/tex/latex/fp/fp-exp.sty
INPUT /usr/share/texlive/texmf-dist/tex/latex/fp/fp-exp.sty
INPUT /usr/share/texlive/texmf-dist/tex/latex/fp/fp-trigo.sty
INPUT /usr/share/texlive/texmf-dist/tex/latex/fp/fp-trigo.sty
INPUT /usr/share/texlive/texmf-dist/tex/latex/fp/fp-pas.sty
INPUT /usr/share/texlive/texmf-dist/tex/latex/fp/fp-pas.sty
INPUT /usr/share/texlive/texmf-dist/tex/latex/fp/fp-random.sty
INPUT /usr/share/texlive/texmf-dist/tex/latex/fp/fp-random.sty
INPUT /usr/share/texlive/texmf-dist/tex/latex/fp/fp-eqn.sty
INPUT /usr/share/texlive/texmf-dist/tex/latex/fp/fp-eqn.sty
INPUT /usr/share/texlive/texmf-dist/tex/latex/fp/fp-upn.sty
INPUT /usr/share/texlive/texmf-dist/tex/latex/fp/fp-upn.sty
INPUT /usr/share/texlive/texmf-dist/tex/latex/fp/fp-eval.sty
INPUT /usr/share/texlive/texmf-dist/tex/latex/fp/fp-eval.sty
INPUT /usr/share/texlive/texmf-dist/tex/latex/supertabular/supertabular.sty
INPUT /usr/share/texlive/texmf-dist/tex/latex/glossaries/base/glossaries-compatible-307.sty
INPUT /usr/share/texlive/texmf-dist/tex/latex/glossaries/base/glossaries-compatible-307.sty
INPUT /usr/share/texlive/texmf-dist/tex/latex/tracklang/tracklang.sty
INPUT /usr/share/texlive/texmf-dist/tex/latex/tracklang/tracklang.sty
INPUT /usr/share/texlive/texmf-dist/tex/generic/tracklang/tracklang.tex
INPUT /usr/share/texlive/texmf-dist/tex/generic/tracklang/tracklang.tex
INPUT /usr/share/texlive/texmf-dist/tex/latex/translator/translator.sty
INPUT /usr/share/texlive/texmf-dist/tex/latex/translator/translator.sty
INPUT /usr/share/texlive/texmf-dist/tex/latex/translator/translator.sty
INPUT /usr/share/texlive/texmf-dist/tex/latex/glossaries-french/glossaries-french.ldf
INPUT /usr/share/texlive/texmf-dist/tex/latex/glossaries-french/glossaries-french.ldf
INPUT /usr/share/texlive/texmf-dist/tex/latex/glossaries-french/glossaries-french.ldf
INPUT /usr/share/texlive/texmf-dist/tex/latex/glossaries/styles/glossary-hypernav.sty
INPUT /usr/share/texlive/texmf-dist/tex/latex/glossaries/styles/glossary-hypernav.sty
INPUT /usr/share/texlive/texmf-dist/tex/latex/glossaries/styles/glossary-list.sty
INPUT /usr/share/texlive/texmf-dist/tex/latex/glossaries/styles/glossary-list.sty
INPUT /usr/share/texlive/texmf-dist/tex/latex/glossaries/styles/glossary-long.sty
INPUT /usr/share/texlive/texmf-dist/tex/latex/glossaries/styles/glossary-long.sty
INPUT /usr/share/texlive/texmf-dist/tex/latex/tools/longtable.sty
INPUT /usr/share/texlive/texmf-dist/tex/latex/tools/longtable.sty
INPUT /usr/share/texlive/texmf-dist/tex/latex/glossaries/styles/glossary-super.sty
INPUT /usr/share/texlive/texmf-dist/tex/latex/glossaries/styles/glossary-super.sty
INPUT /usr/share/texlive/texmf-dist/tex/latex/supertabular/supertabular.sty
INPUT /usr/share/texlive/texmf-dist/tex/latex/supertabular/supertabular.sty
INPUT /usr/share/texlive/texmf-dist/tex/latex/glossaries/styles/glossary-tree.sty
INPUT /usr/share/texlive/texmf-dist/tex/latex/glossaries/styles/glossary-tree.sty
INPUT /usr/share/texlive/texmf-dist/tex/latex/listings/lstlang1.sty
INPUT /usr/share/texlive/texmf-dist/tex/latex/listings/lstlang1.sty
INPUT /usr/share/texlive/texmf-dist/tex/latex/listings/lstmisc.sty
INPUT /usr/share/texlive/texmf-dist/tex/latex/listings/lstmisc.sty
INPUT main.aux
INPUT main.aux
OUTPUT main.aux
INPUT /usr/share/texlive/texmf-dist/tex/context/base/mkii/supp-pdf.mkii
INPUT /usr/share/texlive/texmf-dist/tex/context/base/mkii/supp-pdf.mkii
INPUT /usr/share/texlive/texmf-dist/tex/latex/oberdiek/epstopdf-base.sty
INPUT /usr/share/texlive/texmf-dist/tex/latex/oberdiek/epstopdf-base.sty
INPUT /usr/share/texlive/texmf-dist/tex/latex/oberdiek/grfext.sty
INPUT /usr/share/texlive/texmf-dist/tex/latex/oberdiek/grfext.sty
INPUT /usr/share/texlive/texmf-dist/tex/latex/latexconfig/epstopdf-sys.cfg
INPUT /usr/share/texlive/texmf-dist/tex/latex/latexconfig/epstopdf-sys.cfg
INPUT /usr/share/texlive/texmf-dist/tex/latex/oberdiek/pdflscape.sty
INPUT /usr/share/texlive/texmf-dist/tex/latex/oberdiek/pdflscape.sty
INPUT /usr/share/texlive/texmf-dist/tex/latex/graphics/lscape.sty
INPUT /usr/share/texlive/texmf-dist/tex/latex/graphics/lscape.sty
INPUT /usr/share/texlive/texmf-dist/tex/latex/translations/translations-basic-dictionary-french.trsl
INPUT /usr/share/texlive/texmf-dist/tex/latex/translations/translations-basic-dictionary-french.trsl
INPUT /usr/share/texlive/texmf-dist/tex/latex/hyperref/nameref.sty
INPUT /usr/share/texlive/texmf-dist/tex/latex/hyperref/nameref.sty
INPUT /usr/share/texlive/texmf-dist/tex/generic/oberdiek/gettitlestring.sty
INPUT /usr/share/texlive/texmf-dist/tex/generic/oberdiek/gettitlestring.sty
OUTPUT main.pdf
INPUT /usr/share/texlive/texmf-dist/tex/latex/caption/ltcaption.sty
INPUT /usr/share/texlive/texmf-dist/tex/latex/caption/ltcaption.sty
INPUT /usr/share/texlive/texmf-dist/fonts/tfm/public/ae/aer17.tfm
INPUT /usr/share/texlive/texmf-dist/fonts/tfm/public/ae/aer12.tfm
INPUT /usr/share/texmf/tex/latex/lm/ot1lmr.fd
INPUT /usr/share/texmf/tex/latex/lm/ot1lmr.fd
INPUT /usr/share/texmf/fonts/tfm/public/lm/rm-lmr12.tfm
INPUT /usr/share/texmf/fonts/tfm/public/lm/rm-lmr8.tfm
INPUT /usr/share/texmf/fonts/tfm/public/lm/rm-lmr6.tfm
INPUT /usr/share/texmf/tex/latex/lm/omllmm.fd
INPUT /usr/share/texmf/tex/latex/lm/omllmm.fd
INPUT /usr/share/texmf/fonts/tfm/public/lm/lmmi12.tfm
INPUT /usr/share/texmf/fonts/tfm/public/lm/lmmi8.tfm
INPUT /usr/share/texmf/fonts/tfm/public/lm/lmmi6.tfm
INPUT /usr/share/texmf/tex/latex/lm/omslmsy.fd
INPUT /usr/share/texmf/tex/latex/lm/omslmsy.fd
INPUT /usr/share/texmf/fonts/tfm/public/lm/lmsy10.tfm
INPUT /usr/share/texmf/fonts/tfm/public/lm/lmsy8.tfm
INPUT /usr/share/texmf/fonts/tfm/public/lm/lmsy6.tfm
INPUT /usr/share/texmf/tex/latex/lm/omxlmex.fd
INPUT /usr/share/texmf/tex/latex/lm/omxlmex.fd
INPUT /usr/share/texmf/fonts/tfm/public/lm/lmex10.tfm
INPUT /usr/share/texlive/texmf-dist/tex/latex/amsfonts/umsa.fd
INPUT /usr/share/texlive/texmf-dist/tex/latex/amsfonts/umsa.fd
INPUT /usr/share/texlive/texmf-dist/fonts/tfm/public/amsfonts/symbols/msam10.tfm
INPUT /usr/share/texlive/texmf-dist/fonts/tfm/public/amsfonts/symbols/msam10.tfm
INPUT /usr/share/texlive/texmf-dist/fonts/tfm/public/amsfonts/symbols/msam7.tfm
INPUT /usr/share/texlive/texmf-dist/tex/latex/amsfonts/umsb.fd
INPUT /usr/share/texlive/texmf-dist/tex/latex/amsfonts/umsb.fd
INPUT /usr/share/texlive/texmf-dist/fonts/tfm/public/amsfonts/symbols/msbm10.tfm
INPUT /usr/share/texlive/texmf-dist/fonts/tfm/public/amsfonts/symbols/msbm10.tfm
INPUT /usr/share/texlive/texmf-dist/fonts/tfm/public/amsfonts/symbols/msbm7.tfm
INPUT /usr/share/texlive/texmf-dist/tex/latex/jknapltx/ursfs.fd
INPUT /usr/share/texlive/texmf-dist/tex/latex/jknapltx/ursfs.fd
INPUT /usr/share/texlive/texmf-dist/fonts/tfm/public/rsfs/rsfs10.tfm
INPUT /usr/share/texlive/texmf-dist/fonts/tfm/public/rsfs/rsfs10.tfm
INPUT /usr/share/texlive/texmf-dist/fonts/tfm/public/rsfs/rsfs5.tfm
INPUT /usr/share/texlive/texmf-dist/tex/latex/stmaryrd/Ustmry.fd
INPUT /usr/share/texlive/texmf-dist/tex/latex/stmaryrd/Ustmry.fd
INPUT /usr/share/texlive/texmf-dist/fonts/tfm/public/stmaryrd/stmary10.tfm
INPUT /usr/share/texlive/texmf-dist/fonts/tfm/public/stmaryrd/stmary8.tfm
INPUT /usr/share/texlive/texmf-dist/fonts/tfm/public/stmaryrd/stmary6.tfm
INPUT /usr/share/texlive/texmf-dist/fonts/tfm/public/ae/aecsc10.tfm
INPUT /usr/share/texlive/texmf-dist/fonts/vf/public/ae/aer17.vf
INPUT /usr/share/texlive/texmf-dist/fonts/tfm/public/cm/cmr17.tfm
INPUT /usr/share/texlive/texmf-dist/fonts/tfm/public/cm/cmr17.tfm
INPUT /usr/share/texlive/texmf-dist/fonts/tfm/public/cm/cmmi12.tfm
INPUT /usr/share/texlive/texmf-dist/fonts/tfm/public/cm/cmmi12.tfm
INPUT /usr/share/texlive/texmf-dist/fonts/tfm/public/cm/cmsy10.tfm
INPUT /usr/share/texlive/texmf-dist/fonts/tfm/public/cm/cmu10.tfm
INPUT /var/lib/texmf/fonts/map/pdftex/updmap/pdftex.map
INPUT /usr/share/texlive/texmf-dist/fonts/vf/public/ae/aer12.vf
INPUT /usr/share/texlive/texmf-dist/fonts/tfm/public/cm/cmr12.tfm
INPUT /usr/share/texlive/texmf-dist/fonts/tfm/public/cm/cmmi12.tfm
INPUT /usr/share/texlive/texmf-dist/fonts/tfm/public/cm/cmmi12.tfm
INPUT /usr/share/texlive/texmf-dist/fonts/tfm/public/cm/cmsy10.tfm
INPUT /usr/share/texlive/texmf-dist/fonts/tfm/public/cm/cmu10.tfm
INPUT /usr/share/texlive/texmf-dist/fonts/vf/public/ae/aecsc10.vf
INPUT /usr/share/texlive/texmf-dist/fonts/tfm/public/cm/cmcsc10.tfm
INPUT /usr/share/texlive/texmf-dist/fonts/tfm/public/cm/cmmi10.tfm
INPUT /usr/share/texlive/texmf-dist/fonts/tfm/public/cm/cmmi10.tfm
INPUT /usr/share/texlive/texmf-dist/fonts/tfm/public/ae/aer17.tfm
INPUT /usr/share/texlive/texmf-dist/fonts/tfm/public/ae/aebx12.tfm
INPUT main.toc
INPUT main.toc
INPUT /usr/share/texlive/texmf-dist/fonts/tfm/public/ae/aebx10.tfm
INPUT /usr/share/texmf/fonts/tfm/public/lm/rm-lmr10.tfm
INPUT /usr/share/texmf/fonts/tfm/public/lm/rm-lmr7.tfm
INPUT /usr/share/texmf/fonts/tfm/public/lm/rm-lmr5.tfm
INPUT /usr/share/texmf/fonts/tfm/public/lm/lmmi10.tfm
INPUT /usr/share/texmf/fonts/tfm/public/lm/lmmi7.tfm
INPUT /usr/share/texmf/fonts/tfm/public/lm/lmmi5.tfm
INPUT /usr/share/texmf/fonts/tfm/public/lm/lmsy10.tfm
INPUT /usr/share/texmf/fonts/tfm/public/lm/lmsy7.tfm
INPUT /usr/share/texmf/fonts/tfm/public/lm/lmsy5.tfm
INPUT /usr/share/texlive/texmf-dist/fonts/tfm/public/amsfonts/symbols/msam10.tfm
INPUT /usr/share/texlive/texmf-dist/fonts/tfm/public/amsfonts/symbols/msam7.tfm
INPUT /usr/share/texlive/texmf-dist/fonts/tfm/public/amsfonts/symbols/msam5.tfm
INPUT /usr/share/texlive/texmf-dist/fonts/tfm/public/amsfonts/symbols/msbm10.tfm
INPUT /usr/share/texlive/texmf-dist/fonts/tfm/public/amsfonts/symbols/msbm7.tfm
INPUT /usr/share/texlive/texmf-dist/fonts/tfm/public/amsfonts/symbols/msbm5.tfm
INPUT /usr/share/texlive/texmf-dist/fonts/tfm/public/rsfs/rsfs10.tfm
INPUT /usr/share/texlive/texmf-dist/fonts/tfm/public/rsfs/rsfs7.tfm
INPUT /usr/share/texlive/texmf-dist/fonts/tfm/public/rsfs/rsfs5.tfm
INPUT /usr/share/texlive/texmf-dist/fonts/tfm/public/stmaryrd/stmary10.tfm
INPUT /usr/share/texlive/texmf-dist/fonts/tfm/public/stmaryrd/stmary7.tfm
INPUT /usr/share/texlive/texmf-dist/fonts/tfm/public/stmaryrd/stmary5.tfm
OUTPUT main.toc
INPUT /usr/share/texlive/texmf-dist/fonts/vf/public/ae/aebx12.vf
INPUT /usr/share/texlive/texmf-dist/fonts/tfm/public/cm/cmbx12.tfm
INPUT /usr/share/texlive/texmf-dist/fonts/tfm/public/cm/cmmib10.tfm
INPUT /usr/share/texlive/texmf-dist/fonts/tfm/public/cm/cmmib10.tfm
INPUT /usr/share/texlive/texmf-dist/fonts/tfm/public/cm/cmbsy10.tfm
INPUT /usr/share/texlive/texmf-dist/fonts/tfm/public/cm/cmbxti10.tfm
INPUT /usr/share/texlive/texmf-dist/fonts/vf/public/ae/aebx10.vf
INPUT /usr/share/texlive/texmf-dist/fonts/tfm/public/cm/cmbx10.tfm
INPUT /usr/share/texlive/texmf-dist/fonts/tfm/public/cm/cmmib10.tfm
INPUT /usr/share/texlive/texmf-dist/fonts/tfm/public/cm/cmmib10.tfm
INPUT /usr/share/texlive/texmf-dist/fonts/tfm/public/cm/cmbsy10.tfm
INPUT /usr/share/texlive/texmf-dist/fonts/tfm/public/cm/cmbxti10.tfm
INPUT /usr/share/texlive/texmf-dist/fonts/vf/public/ae/aer10.vf
INPUT /usr/share/texlive/texmf-dist/fonts/tfm/public/cm/cmmi10.tfm
INPUT /usr/share/texlive/texmf-dist/fonts/tfm/public/cm/cmu10.tfm
INPUT /usr/share/texlive/texmf-dist/fonts/tfm/public/ae/aer17.tfm
INPUT /usr/share/texlive/texmf-dist/fonts/tfm/public/ae/aebx12.tfm
INPUT /usr/share/texlive/texmf-dist/fonts/tfm/public/ae/aer12.tfm
INPUT /usr/share/texlive/texmf-dist/fonts/tfm/public/ae/aebx12.tfm
INPUT /usr/share/texlive/texmf-dist/fonts/vf/public/ae/aebx12.vf
INPUT /usr/share/texlive/texmf-dist/fonts/tfm/public/cm/cmbx12.tfm
INPUT /usr/share/texlive/texmf-dist/fonts/tfm/public/cm/cmmib10.tfm
INPUT /usr/share/texlive/texmf-dist/fonts/tfm/public/cm/cmmib10.tfm
INPUT /usr/share/texlive/texmf-dist/fonts/tfm/public/cm/cmbsy10.tfm
INPUT /usr/share/texlive/texmf-dist/fonts/tfm/public/cm/cmbxti10.tfm
INPUT /usr/share/texlive/texmf-dist/fonts/vf/public/ae/aebx12.vf
INPUT /usr/share/texlive/texmf-dist/fonts/tfm/public/cm/cmbx12.tfm
INPUT /usr/share/texlive/texmf-dist/fonts/tfm/public/cm/cmmib10.tfm
INPUT /usr/share/texlive/texmf-dist/fonts/tfm/public/cm/cmmib10.tfm
INPUT /usr/share/texlive/texmf-dist/fonts/tfm/public/cm/cmbsy10.tfm
INPUT /usr/share/texlive/texmf-dist/fonts/tfm/public/cm/cmbxti10.tfm
INPUT /usr/share/texmf/tex/latex/lm/t1lmr.fd
INPUT /usr/share/texmf/tex/latex/lm/t1lmr.fd
INPUT /usr/share/texmf/fonts/tfm/public/lm/ec-lmr10.tfm
INPUT /usr/share/texlive/texmf-dist/fonts/tfm/public/ae/aebx12.tfm
INPUT /usr/share/texlive/texmf-dist/fonts/vf/public/ae/aebx12.vf
INPUT /usr/share/texlive/texmf-dist/fonts/tfm/public/cm/cmbx12.tfm
INPUT /usr/share/texlive/texmf-dist/fonts/tfm/public/cm/cmmib10.tfm
INPUT /usr/share/texlive/texmf-dist/fonts/tfm/public/cm/cmmib10.tfm
INPUT /usr/share/texlive/texmf-dist/fonts/tfm/public/cm/cmbsy10.tfm
INPUT /usr/share/texlive/texmf-dist/fonts/tfm/public/cm/cmbxti10.tfm
INPUT main.aux
INPUT /usr/share/texmf/fonts/enc/dvips/lm/lm-ec.enc
INPUT /usr/share/texlive/texmf-dist/fonts/type1/public/amsfonts/cm/cmbx10.pfb
INPUT /usr/share/texlive/texmf-dist/fonts/type1/public/amsfonts/cm/cmbx12.pfb
INPUT /usr/share/texlive/texmf-dist/fonts/type1/public/amsfonts/cm/cmcsc10.pfb
INPUT /usr/share/texlive/texmf-dist/fonts/type1/public/amsfonts/cm/cmr10.pfb
INPUT /usr/share/texlive/texmf-dist/fonts/type1/public/amsfonts/cm/cmr12.pfb
INPUT /usr/share/texlive/texmf-dist/fonts/type1/public/amsfonts/cm/cmr17.pfb
INPUT /usr/share/texmf/fonts/type1/public/lm/lmr10.pfb
