\babel@toc {french}{}
\contentsline {chapter}{\numberline {I}Introduction}{2}{chapter.1}% 
\contentsline {section}{\numberline {A}Les origines}{2}{section.1.1}% 
\contentsline {chapter}{\numberline {II}Les distributions}{3}{chapter.2}% 
\contentsline {section}{\numberline {A}Distribution}{3}{section.2.1}% 
\contentsline {subsection}{\numberline {a}Debian}{3}{subsection.2.1.1}% 
\contentsline {subsection}{\numberline {b}Ubuntu}{3}{subsection.2.1.2}% 
\contentsline {subsection}{\numberline {c}Linux Mint}{3}{subsection.2.1.3}% 
\contentsline {subsection}{\numberline {d}RedHat}{3}{subsection.2.1.4}% 
\contentsline {section}{\numberline {B}Interface graphique}{3}{section.2.2}% 
\contentsline {chapter}{\numberline {III}Le terminal}{4}{chapter.3}% 
