\relax 
\providecommand\hyper@newdestlabel[2]{}
\providecommand\BKM@entry[2]{}
\catcode `:\active 
\catcode `;\active 
\catcode `!\active 
\catcode `?\active 
\providecommand\HyperFirstAtBeginDocument{\AtBeginDocument}
\HyperFirstAtBeginDocument{\ifx\hyper@anchor\@undefined
\global\let\oldcontentsline\contentsline
\gdef\contentsline#1#2#3#4{\oldcontentsline{#1}{#2}{#3}}
\global\let\oldnewlabel\newlabel
\gdef\newlabel#1#2{\newlabelxx{#1}#2}
\gdef\newlabelxx#1#2#3#4#5#6{\oldnewlabel{#1}{{#2}{#3}}}
\AtEndDocument{\ifx\hyper@anchor\@undefined
\let\contentsline\oldcontentsline
\let\newlabel\oldnewlabel
\fi}
\fi}
\global\let\hyper@last\relax 
\gdef\HyperFirstAtBeginDocument#1{#1}
\providecommand\HyField@AuxAddToFields[1]{}
\providecommand\HyField@AuxAddToCoFields[2]{}
\providecommand\@newglossary[4]{}
\@newglossary{main}{glg}{gls}{glo}
\babel@aux{french}{}
\BKM@entry{id=1,dest={636861707465722E31},srcline={96}}{496E74726F64756374696F6E}
\BKM@entry{id=2,dest={73656374696F6E2E312E31},srcline={98}}{4C6573206F726967696E6573}
\@writefile{toc}{\contentsline {chapter}{\numberline {I}Introduction}{2}{chapter.1}\protected@file@percent }
\@writefile{lof}{\addvspace {10\p@ }}
\@writefile{lot}{\addvspace {10\p@ }}
\@writefile{toc}{\contentsline {section}{\numberline {A}Les origines}{2}{section.1.1}\protected@file@percent }
\BKM@entry{id=3,dest={636861707465722E32},srcline={101}}{4C657320646973747269627574696F6E73}
\BKM@entry{id=4,dest={73656374696F6E2E322E31},srcline={109}}{446973747269627574696F6E}
\BKM@entry{id=5,dest={73756273656374696F6E2E322E312E31},srcline={115}}{44656269616E}
\BKM@entry{id=6,dest={73756273656374696F6E2E322E312E32},srcline={117}}{5562756E7475}
\BKM@entry{id=7,dest={73756273656374696F6E2E322E312E33},srcline={119}}{4C696E7578204D696E74}
\BKM@entry{id=8,dest={73756273656374696F6E2E322E312E34},srcline={121}}{526564486174}
\BKM@entry{id=9,dest={73656374696F6E2E322E32},srcline={123}}{496E7465726661636520677261706869717565}
\@writefile{toc}{\contentsline {chapter}{\numberline {II}Les distributions}{3}{chapter.2}\protected@file@percent }
\@writefile{lof}{\addvspace {10\p@ }}
\@writefile{lot}{\addvspace {10\p@ }}
\@writefile{toc}{\contentsline {section}{\numberline {A}Distribution}{3}{section.2.1}\protected@file@percent }
\@writefile{toc}{\contentsline {subsection}{\numberline {a}Debian}{3}{subsection.2.1.1}\protected@file@percent }
\@writefile{toc}{\contentsline {subsection}{\numberline {b}Ubuntu}{3}{subsection.2.1.2}\protected@file@percent }
\@writefile{toc}{\contentsline {subsection}{\numberline {c}Linux Mint}{3}{subsection.2.1.3}\protected@file@percent }
\@writefile{toc}{\contentsline {subsection}{\numberline {d}RedHat}{3}{subsection.2.1.4}\protected@file@percent }
\@writefile{toc}{\contentsline {section}{\numberline {B}Interface graphique}{3}{section.2.2}\protected@file@percent }
\BKM@entry{id=10,dest={636861707465722E33},srcline={125}}{4C65207465726D696E616C}
\@writefile{toc}{\contentsline {chapter}{\numberline {III}Le terminal}{4}{chapter.3}\protected@file@percent }
\@writefile{lof}{\addvspace {10\p@ }}
\@writefile{lot}{\addvspace {10\p@ }}
